Tarefa01/tb_And8Way.vcd
$date
	Wed Mar 29 21:32:40 2023
$end
$version
	Icarus Verilog
$end
$timescale
	1s
$end
$scope module tb_And8Way $end
$var wire 1 ! out $end
$var reg 1 " a $end
$var reg 1 # b $end
$var reg 1 $ c $end
$var reg 1 % d $end
$var reg 1 & e $end
$var reg 1 ' f $end
$var reg 1 ( g $end
$var reg 1 ) h $end
$scope module mymodule $end
$var wire 1 " a $end
$var wire 1 # b $end
$var wire 1 $ c $end
$var wire 1 % d $end
$var wire 1 & e $end
$var wire 1 ' f $end
$var wire 1 ( g $end
$var wire 1 ) h $end
$var wire 1 ! out $end
$var wire 1 * w1 $end
$var wire 1 + w2 $end
$var wire 1 , w3 $end
$var wire 1 - w4 $end
$var wire 1 . w5 $end
$var wire 1 / w6 $end
$upscope $end
$upscope $end
$enddefinitions $end
$comment Show the parameter values. $end
$dumpall
$end
#0
$dumpvars
0/
0.
0-
0,
0+
0*
0)
0(
0'
0&
0%
0$
0#
0"
0!
$end
#1
1,
1'
1&
#2
1/
1-
1)
1(
1$
#3
0/
0-
1+
0)
0(
1%
#4
0,
0+
0'
0&
0%
0$
1#
#5
1(
#6
1-
1)
1%
#7
0-
0(
1'
#8
1+
1$
#9
0'
1&
#10
0+
1'
0&
0%
0$
0#
1"
#11
0'
1&
#12
0&
1%
#13
1,
0)
1'
1&
#14
0,
1)
0'
0&
0%
1$
#15
0)
1'
#16
1)
#17
0)
0'
1&
#18
1(
#19
1,
0(
1'
#20
0,
1+
0'
0&
1%
#21
1'
#22
0+
1*
1)
0'
0$
1#
#23
1-
1(
1&
0%
1$
#24
1.
0-
1+
0(
1'
0&
1%
#25
1-
1(
0'
1&
#27
0-
1,
0(
1'
#28
0)
1(
#29
1!
1/
1-
1)
