Tarefa01/tb_And16.vcd
$date
	Wed Mar 29 21:32:45 2023
$end
$version
	Icarus Verilog
$end
$timescale
	1s
$end
$scope module tb_And16 $end
$var wire 16 ! out [15:0] $end
$var reg 16 " a [15:0] $end
$var reg 16 # b [15:0] $end
$scope module mymodule $end
$var wire 16 $ a [15:0] $end
$var wire 16 % b [15:0] $end
$var wire 16 & out [15:0] $end
$upscope $end
$upscope $end
$enddefinitions $end
$comment Show the parameter values. $end
$dumpall
$end
#0
$dumpvars
b1001100000 &
b1100111011100000 %
b1101110001 $
b1100111011100000 #
b1101110001 "
b1001100000 !
$end
#1
b10000101010 !
b10000101010 &
b110110100101110 #
b110110100101110 %
b10000101011 "
b10000101011 $
#2
b1000110001 !
b1000110001 &
b1010001001110001 #
b1010001001110001 %
b101000110001 "
b101000110001 $
#3
b101000110100 !
b101000110100 &
b1011101001110101 #
b1011101001110101 %
b101100110110 "
b101100110110 $
#4
b1000000011001 !
b1000000011001 &
b1111101101011001 #
b1111101101011001 %
b1010000011111 "
b1010000011111 $
#5
b0 !
b0 &
b1010000110001100 #
b1010000110001100 %
b1010000100010 "
b1010000100010 $
#6
b1001100000 !
b1001100000 &
b1010001011100110 #
b1010001011100110 %
b1101001101000 "
b1101001101000 $
#7
b100010000000 !
b100010000000 &
b101010101100 #
b101010101100 %
b1110111010011 "
b1110111010011 $
#8
b1000100100 !
b1000100100 &
b1001001000100101 #
b1001001000100101 %
b10011000100110 "
b10011000100110 $
#9
b10101001101000 !
b10101001101000 &
b111101001111100 #
b111101001111100 %
b10111011101000 "
b10111011101000 $
#10
b100010010001110 !
b100010010001110 &
b100011010111110 #
b100011010111110 %
b100010110001111 "
b100010110001111 $
#11
b10100100000 !
b10100100000 &
b1001110100111100 #
b1001110100111100 %
b100010110100011 "
b100010110100011 $
#12
b100010010000000 !
b100010010000000 &
b111011111100000 #
b111011111100000 %
b100110010011111 "
b100110010011111 $
#13
b100101000000011 !
b100101000000011 &
b100101100000011 #
b100101100000011 %
b100111011000011 "
b100111011000011 $
#14
b100000000000000 !
b100000000000000 &
b100000010011001 #
b100000010011001 %
b101111001100000 "
b101111001100000 $
#15
b1011010 !
b1011010 &
b100001011111 #
b100001011111 %
b110000001111010 "
b110000001111010 $
#16
b100000000000011 !
b100000000000011 &
b1100001000001111 #
b1100001000001111 %
b110000011110011 "
b110000011110011 $
#17
b110000001001101 !
b110000001001101 &
b110100001011101 #
b110100001011101 %
b110010101001101 "
b110010101001101 $
#18
b111000001000000 !
b111000001000000 &
b111001001000110 #
b111001001000110 %
b111000101110001 "
b111000101110001 $
#19
b101100010000000 !
b101100010000000 &
b101110010100011 #
b101110010100011 %
b111100110011100 "
b111100110011100 $
#20
b110010000 !
b110010000 &
b111010001 #
b111010001 %
b1000010110010100 "
b1000010110010100 $
#21
b100010 !
b100010 &
b100100000100010 #
b100100000100010 %
b1001001100101110 "
b1001001100101110 $
#22
b1000001111100000 !
b1000001111100000 &
b1000011111110001 #
b1000011111110001 %
b1001101111101110 "
b1001101111101110 $
#23
b1000100010000000 !
b1000100010000000 &
b1000111011000100 #
b1000111011000100 %
b1010100110010000 "
b1010100110010000 $
#24
b10100100 !
b10100100 &
b100000010100111 #
b100000010100111 %
b1011110010100100 "
b1011110010100100 $
#25
b1000100000010000 !
b1000100000010000 &
b1001110100111110 #
b1001110100111110 %
b1100100000010001 "
b1100100000010001 $
#26
b1000000100000000 !
b1000000100000000 &
b1011001110000001 #
b1011001110000001 %
b1100100101111010 "
b1100100101111010 $
#27
b1101001000000000 !
b1101001000000000 &
b1111011010100100 #
b1111011010100100 %
b1101001100011000 "
b1101001100011000 $
#28
b1110001100100000 !
b1110001100100000 &
b1111011100101101 #
b1111011100101101 %
b1110101110100000 "
b1110101110100000 $
#29
b100110100101101 !
b100110100101101 &
b100110100101101 #
b100110100101101 %
b1111111111111101 "
b1111111111111101 $
