Tarefa01/tb_Mux.vcd
$date
	Wed Mar 29 21:33:28 2023
$end
$version
	Icarus Verilog
$end
$timescale
	1s
$end
$scope module tb_Mux $end
$var wire 1 ! out $end
$var reg 1 " a $end
$var reg 1 # b $end
$var reg 1 $ sel $end
$scope module mymodule $end
$var wire 1 " a $end
$var wire 1 # b $end
$var wire 1 ! out $end
$var wire 1 $ sel $end
$var wire 1 % w1 $end
$var wire 1 & w2 $end
$var wire 1 ' w3 $end
$upscope $end
$upscope $end
$enddefinitions $end
$comment Show the parameter values. $end
$dumpall
$end
#0
$dumpvars
1'
1&
1%
0$
0#
0"
0!
$end
#1
0'
1$
#2
1'
0$
1#
#3
1!
0&
0'
1$
#4
0%
1!
1'
1&
0$
0#
1"
#5
0!
1%
0'
1$
#6
1!
0%
1'
0$
1#
#7
1%
0&
0'
1$
