Tarefa01/tb_Mux4Way16.vcd
$date
	Wed Mar 29 21:33:36 2023
$end
$version
	Icarus Verilog
$end
$timescale
	1s
$end
$scope module tb_Mux4Way16 $end
$var wire 16 ! out [15:0] $end
$var reg 16 " a [15:0] $end
$var reg 16 # b [15:0] $end
$var reg 16 $ c [15:0] $end
$var reg 16 % d [15:0] $end
$var reg 2 & sel [1:0] $end
$scope module mymodule $end
$var wire 16 ' a [15:0] $end
$var wire 16 ( b [15:0] $end
$var wire 16 ) c [15:0] $end
$var wire 16 * d [15:0] $end
$var wire 2 + sel [1:0] $end
$var wire 16 , w2 [15:0] $end
$var wire 16 - w1 [15:0] $end
$var wire 16 . out [15:0] $end
$scope module mux0 $end
$var wire 16 / a [15:0] $end
$var wire 16 0 b [15:0] $end
$var wire 1 1 sel $end
$var wire 16 2 out [15:0] $end
$scope module mux0 $end
$var wire 1 3 a $end
$var wire 1 4 b $end
$var wire 1 5 out $end
$var wire 1 1 sel $end
$var wire 1 6 w1 $end
$var wire 1 7 w2 $end
$var wire 1 8 w3 $end
$upscope $end
$scope module mux1 $end
$var wire 1 9 a $end
$var wire 1 : b $end
$var wire 1 ; out $end
$var wire 1 1 sel $end
$var wire 1 < w1 $end
$var wire 1 = w2 $end
$var wire 1 > w3 $end
$upscope $end
$scope module mux10 $end
$var wire 1 ? a $end
$var wire 1 @ b $end
$var wire 1 A out $end
$var wire 1 1 sel $end
$var wire 1 B w1 $end
$var wire 1 C w2 $end
$var wire 1 D w3 $end
$upscope $end
$scope module mux11 $end
$var wire 1 E a $end
$var wire 1 F b $end
$var wire 1 G out $end
$var wire 1 1 sel $end
$var wire 1 H w1 $end
$var wire 1 I w2 $end
$var wire 1 J w3 $end
$upscope $end
$scope module mux12 $end
$var wire 1 K a $end
$var wire 1 L b $end
$var wire 1 M out $end
$var wire 1 1 sel $end
$var wire 1 N w1 $end
$var wire 1 O w2 $end
$var wire 1 P w3 $end
$upscope $end
$scope module mux13 $end
$var wire 1 Q a $end
$var wire 1 R b $end
$var wire 1 S out $end
$var wire 1 1 sel $end
$var wire 1 T w1 $end
$var wire 1 U w2 $end
$var wire 1 V w3 $end
$upscope $end
$scope module mux14 $end
$var wire 1 W a $end
$var wire 1 X b $end
$var wire 1 Y out $end
$var wire 1 1 sel $end
$var wire 1 Z w1 $end
$var wire 1 [ w2 $end
$var wire 1 \ w3 $end
$upscope $end
$scope module mux15 $end
$var wire 1 ] a $end
$var wire 1 ^ b $end
$var wire 1 _ out $end
$var wire 1 1 sel $end
$var wire 1 ` w1 $end
$var wire 1 a w2 $end
$var wire 1 b w3 $end
$upscope $end
$scope module mux2 $end
$var wire 1 c a $end
$var wire 1 d b $end
$var wire 1 e out $end
$var wire 1 1 sel $end
$var wire 1 f w1 $end
$var wire 1 g w2 $end
$var wire 1 h w3 $end
$upscope $end
$scope module mux3 $end
$var wire 1 i a $end
$var wire 1 j b $end
$var wire 1 k out $end
$var wire 1 1 sel $end
$var wire 1 l w1 $end
$var wire 1 m w2 $end
$var wire 1 n w3 $end
$upscope $end
$scope module mux4 $end
$var wire 1 o a $end
$var wire 1 p b $end
$var wire 1 q out $end
$var wire 1 1 sel $end
$var wire 1 r w1 $end
$var wire 1 s w2 $end
$var wire 1 t w3 $end
$upscope $end
$scope module mux5 $end
$var wire 1 u a $end
$var wire 1 v b $end
$var wire 1 w out $end
$var wire 1 1 sel $end
$var wire 1 x w1 $end
$var wire 1 y w2 $end
$var wire 1 z w3 $end
$upscope $end
$scope module mux6 $end
$var wire 1 { a $end
$var wire 1 | b $end
$var wire 1 } out $end
$var wire 1 1 sel $end
$var wire 1 ~ w1 $end
$var wire 1 !" w2 $end
$var wire 1 "" w3 $end
$upscope $end
$scope module mux7 $end
$var wire 1 #" a $end
$var wire 1 $" b $end
$var wire 1 %" out $end
$var wire 1 1 sel $end
$var wire 1 &" w1 $end
$var wire 1 '" w2 $end
$var wire 1 (" w3 $end
$upscope $end
$scope module mux8 $end
$var wire 1 )" a $end
$var wire 1 *" b $end
$var wire 1 +" out $end
$var wire 1 1 sel $end
$var wire 1 ," w1 $end
$var wire 1 -" w2 $end
$var wire 1 ." w3 $end
$upscope $end
$scope module mux9 $end
$var wire 1 /" a $end
$var wire 1 0" b $end
$var wire 1 1" out $end
$var wire 1 1 sel $end
$var wire 1 2" w1 $end
$var wire 1 3" w2 $end
$var wire 1 4" w3 $end
$upscope $end
$upscope $end
$scope module mux1 $end
$var wire 16 5" a [15:0] $end
$var wire 16 6" b [15:0] $end
$var wire 1 7" sel $end
$var wire 16 8" out [15:0] $end
$scope module mux0 $end
$var wire 1 9" a $end
$var wire 1 :" b $end
$var wire 1 ;" out $end
$var wire 1 7" sel $end
$var wire 1 <" w1 $end
$var wire 1 =" w2 $end
$var wire 1 >" w3 $end
$upscope $end
$scope module mux1 $end
$var wire 1 ?" a $end
$var wire 1 @" b $end
$var wire 1 A" out $end
$var wire 1 7" sel $end
$var wire 1 B" w1 $end
$var wire 1 C" w2 $end
$var wire 1 D" w3 $end
$upscope $end
$scope module mux10 $end
$var wire 1 E" a $end
$var wire 1 F" b $end
$var wire 1 G" out $end
$var wire 1 7" sel $end
$var wire 1 H" w1 $end
$var wire 1 I" w2 $end
$var wire 1 J" w3 $end
$upscope $end
$scope module mux11 $end
$var wire 1 K" a $end
$var wire 1 L" b $end
$var wire 1 M" out $end
$var wire 1 7" sel $end
$var wire 1 N" w1 $end
$var wire 1 O" w2 $end
$var wire 1 P" w3 $end
$upscope $end
$scope module mux12 $end
$var wire 1 Q" a $end
$var wire 1 R" b $end
$var wire 1 S" out $end
$var wire 1 7" sel $end
$var wire 1 T" w1 $end
$var wire 1 U" w2 $end
$var wire 1 V" w3 $end
$upscope $end
$scope module mux13 $end
$var wire 1 W" a $end
$var wire 1 X" b $end
$var wire 1 Y" out $end
$var wire 1 7" sel $end
$var wire 1 Z" w1 $end
$var wire 1 [" w2 $end
$var wire 1 \" w3 $end
$upscope $end
$scope module mux14 $end
$var wire 1 ]" a $end
$var wire 1 ^" b $end
$var wire 1 _" out $end
$var wire 1 7" sel $end
$var wire 1 `" w1 $end
$var wire 1 a" w2 $end
$var wire 1 b" w3 $end
$upscope $end
$scope module mux15 $end
$var wire 1 c" a $end
$var wire 1 d" b $end
$var wire 1 e" out $end
$var wire 1 7" sel $end
$var wire 1 f" w1 $end
$var wire 1 g" w2 $end
$var wire 1 h" w3 $end
$upscope $end
$scope module mux2 $end
$var wire 1 i" a $end
$var wire 1 j" b $end
$var wire 1 k" out $end
$var wire 1 7" sel $end
$var wire 1 l" w1 $end
$var wire 1 m" w2 $end
$var wire 1 n" w3 $end
$upscope $end
$scope module mux3 $end
$var wire 1 o" a $end
$var wire 1 p" b $end
$var wire 1 q" out $end
$var wire 1 7" sel $end
$var wire 1 r" w1 $end
$var wire 1 s" w2 $end
$var wire 1 t" w3 $end
$upscope $end
$scope module mux4 $end
$var wire 1 u" a $end
$var wire 1 v" b $end
$var wire 1 w" out $end
$var wire 1 7" sel $end
$var wire 1 x" w1 $end
$var wire 1 y" w2 $end
$var wire 1 z" w3 $end
$upscope $end
$scope module mux5 $end
$var wire 1 {" a $end
$var wire 1 |" b $end
$var wire 1 }" out $end
$var wire 1 7" sel $end
$var wire 1 ~" w1 $end
$var wire 1 !# w2 $end
$var wire 1 "# w3 $end
$upscope $end
$scope module mux6 $end
$var wire 1 ## a $end
$var wire 1 $# b $end
$var wire 1 %# out $end
$var wire 1 7" sel $end
$var wire 1 &# w1 $end
$var wire 1 '# w2 $end
$var wire 1 (# w3 $end
$upscope $end
$scope module mux7 $end
$var wire 1 )# a $end
$var wire 1 *# b $end
$var wire 1 +# out $end
$var wire 1 7" sel $end
$var wire 1 ,# w1 $end
$var wire 1 -# w2 $end
$var wire 1 .# w3 $end
$upscope $end
$scope module mux8 $end
$var wire 1 /# a $end
$var wire 1 0# b $end
$var wire 1 1# out $end
$var wire 1 7" sel $end
$var wire 1 2# w1 $end
$var wire 1 3# w2 $end
$var wire 1 4# w3 $end
$upscope $end
$scope module mux9 $end
$var wire 1 5# a $end
$var wire 1 6# b $end
$var wire 1 7# out $end
$var wire 1 7" sel $end
$var wire 1 8# w1 $end
$var wire 1 9# w2 $end
$var wire 1 :# w3 $end
$upscope $end
$upscope $end
$scope module mux2 $end
$var wire 16 ;# a [15:0] $end
$var wire 16 <# b [15:0] $end
$var wire 1 =# sel $end
$var wire 16 ># out [15:0] $end
$scope module mux0 $end
$var wire 1 ?# a $end
$var wire 1 @# b $end
$var wire 1 A# out $end
$var wire 1 =# sel $end
$var wire 1 B# w1 $end
$var wire 1 C# w2 $end
$var wire 1 D# w3 $end
$upscope $end
$scope module mux1 $end
$var wire 1 E# a $end
$var wire 1 F# b $end
$var wire 1 G# out $end
$var wire 1 =# sel $end
$var wire 1 H# w1 $end
$var wire 1 I# w2 $end
$var wire 1 J# w3 $end
$upscope $end
$scope module mux10 $end
$var wire 1 K# a $end
$var wire 1 L# b $end
$var wire 1 M# out $end
$var wire 1 =# sel $end
$var wire 1 N# w1 $end
$var wire 1 O# w2 $end
$var wire 1 P# w3 $end
$upscope $end
$scope module mux11 $end
$var wire 1 Q# a $end
$var wire 1 R# b $end
$var wire 1 S# out $end
$var wire 1 =# sel $end
$var wire 1 T# w1 $end
$var wire 1 U# w2 $end
$var wire 1 V# w3 $end
$upscope $end
$scope module mux12 $end
$var wire 1 W# a $end
$var wire 1 X# b $end
$var wire 1 Y# out $end
$var wire 1 =# sel $end
$var wire 1 Z# w1 $end
$var wire 1 [# w2 $end
$var wire 1 \# w3 $end
$upscope $end
$scope module mux13 $end
$var wire 1 ]# a $end
$var wire 1 ^# b $end
$var wire 1 _# out $end
$var wire 1 =# sel $end
$var wire 1 `# w1 $end
$var wire 1 a# w2 $end
$var wire 1 b# w3 $end
$upscope $end
$scope module mux14 $end
$var wire 1 c# a $end
$var wire 1 d# b $end
$var wire 1 e# out $end
$var wire 1 =# sel $end
$var wire 1 f# w1 $end
$var wire 1 g# w2 $end
$var wire 1 h# w3 $end
$upscope $end
$scope module mux15 $end
$var wire 1 i# a $end
$var wire 1 j# b $end
$var wire 1 k# out $end
$var wire 1 =# sel $end
$var wire 1 l# w1 $end
$var wire 1 m# w2 $end
$var wire 1 n# w3 $end
$upscope $end
$scope module mux2 $end
$var wire 1 o# a $end
$var wire 1 p# b $end
$var wire 1 q# out $end
$var wire 1 =# sel $end
$var wire 1 r# w1 $end
$var wire 1 s# w2 $end
$var wire 1 t# w3 $end
$upscope $end
$scope module mux3 $end
$var wire 1 u# a $end
$var wire 1 v# b $end
$var wire 1 w# out $end
$var wire 1 =# sel $end
$var wire 1 x# w1 $end
$var wire 1 y# w2 $end
$var wire 1 z# w3 $end
$upscope $end
$scope module mux4 $end
$var wire 1 {# a $end
$var wire 1 |# b $end
$var wire 1 }# out $end
$var wire 1 =# sel $end
$var wire 1 ~# w1 $end
$var wire 1 !$ w2 $end
$var wire 1 "$ w3 $end
$upscope $end
$scope module mux5 $end
$var wire 1 #$ a $end
$var wire 1 $$ b $end
$var wire 1 %$ out $end
$var wire 1 =# sel $end
$var wire 1 &$ w1 $end
$var wire 1 '$ w2 $end
$var wire 1 ($ w3 $end
$upscope $end
$scope module mux6 $end
$var wire 1 )$ a $end
$var wire 1 *$ b $end
$var wire 1 +$ out $end
$var wire 1 =# sel $end
$var wire 1 ,$ w1 $end
$var wire 1 -$ w2 $end
$var wire 1 .$ w3 $end
$upscope $end
$scope module mux7 $end
$var wire 1 /$ a $end
$var wire 1 0$ b $end
$var wire 1 1$ out $end
$var wire 1 =# sel $end
$var wire 1 2$ w1 $end
$var wire 1 3$ w2 $end
$var wire 1 4$ w3 $end
$upscope $end
$scope module mux8 $end
$var wire 1 5$ a $end
$var wire 1 6$ b $end
$var wire 1 7$ out $end
$var wire 1 =# sel $end
$var wire 1 8$ w1 $end
$var wire 1 9$ w2 $end
$var wire 1 :$ w3 $end
$upscope $end
$scope module mux9 $end
$var wire 1 ;$ a $end
$var wire 1 <$ b $end
$var wire 1 =$ out $end
$var wire 1 =# sel $end
$var wire 1 >$ w1 $end
$var wire 1 ?$ w2 $end
$var wire 1 @$ w3 $end
$upscope $end
$upscope $end
$upscope $end
$upscope $end
$enddefinitions $end
$comment Show the parameter values. $end
$dumpall
$end
#0
$dumpvars
1@$
1?$
1>$
0=$
0<$
0;$
1:$
19$
18$
07$
06$
05$
14$
13$
12$
01$
00$
0/$
1.$
1-$
1,$
0+$
0*$
0)$
1($
1'$
1&$
0%$
0$$
0#$
1"$
1!$
1~#
0}#
0|#
0{#
1z#
1y#
1x#
0w#
0v#
0u#
1t#
1s#
1r#
0q#
0p#
0o#
1n#
1m#
1l#
0k#
0j#
0i#
1h#
1g#
1f#
0e#
0d#
0c#
1b#
1a#
1`#
0_#
0^#
0]#
1\#
1[#
1Z#
0Y#
0X#
0W#
1V#
1U#
1T#
0S#
0R#
0Q#
1P#
1O#
1N#
0M#
0L#
0K#
1J#
1I#
1H#
0G#
0F#
0E#
1D#
1C#
1B#
0A#
0@#
0?#
b0 >#
0=#
b0 <#
b0 ;#
1:#
19#
18#
07#
06#
05#
14#
13#
12#
01#
00#
0/#
1.#
1-#
1,#
0+#
0*#
0)#
1(#
1'#
1&#
0%#
0$#
0##
1"#
1!#
1~"
0}"
0|"
0{"
1z"
1y"
1x"
0w"
0v"
0u"
1t"
1s"
1r"
0q"
0p"
0o"
1n"
1m"
1l"
0k"
0j"
0i"
1h"
1g"
1f"
0e"
0d"
0c"
1b"
1a"
1`"
0_"
0^"
0]"
1\"
1["
1Z"
0Y"
0X"
0W"
1V"
1U"
1T"
0S"
0R"
0Q"
1P"
1O"
1N"
0M"
0L"
0K"
1J"
1I"
1H"
0G"
0F"
0E"
1D"
1C"
1B"
0A"
0@"
0?"
1>"
1="
1<"
0;"
0:"
09"
b0 8"
07"
b0 6"
b0 5"
14"
13"
12"
01"
00"
0/"
1."
1-"
1,"
0+"
0*"
0)"
1("
1'"
1&"
0%"
0$"
0#"
1""
1!"
1~
0}
0|
0{
1z
1y
1x
0w
0v
0u
1t
1s
1r
0q
0p
0o
1n
1m
1l
0k
0j
0i
1h
1g
1f
0e
0d
0c
1b
1a
1`
0_
0^
0]
1\
1[
1Z
0Y
0X
0W
1V
1U
1T
0S
0R
0Q
1P
1O
1N
0M
0L
0K
1J
1I
1H
0G
0F
0E
1D
1C
1B
0A
0@
0?
1>
1=
1<
0;
0:
09
18
17
16
05
04
03
b0 2
01
b0 0
b0 /
b0 .
b0 -
b0 ,
b0 +
b0 *
b0 )
b0 (
b0 '
b0 &
b0 %
b0 $
b0 #
b0 "
b0 !
$end
#1
1A#
1G#
1%$
1=$
1w#
1}#
1+$
01$
07$
1_#
1e#
b110001001111011 !
b110001001111011 .
b110001001111011 >#
0k#
0B#
0H#
0&$
0>$
0x#
0~#
0,$
12$
18$
0`#
0f#
1l#
1|#
10$
1L#
1R#
1X#
1j#
1@#
1F#
0v#
0*$
06$
0^#
0d#
1?#
1E#
1#$
1;$
1u#
1{#
1)$
0/$
05$
1]#
1c#
0i#
1w"
1+#
1G"
1M"
1S"
1e"
1;"
1A"
0q"
0%#
01#
0Y"
b1001110010010011 ,
b1001110010010011 8"
b1001110010010011 <#
0_"
15
1;
1w
11"
1k
1q
1}
0%"
0+"
1S
1Y
b110001001111011 -
b110001001111011 2
b110001001111011 ;#
0_
08
0>
0D
0J
0P
0V
0\
0b
0h
0n
0t
0z
0""
0("
0."
04"
0>"
0D"
0J"
0P"
0V"
0\"
0b"
0h"
0n"
0t"
0z"
0"#
0(#
0.#
04#
0:#
0="
0C"
0y"
0-#
0I"
0O"
0U"
0g"
1<"
1B"
1r"
1&#
12#
1Z"
1`"
07
0=
0m
0s
0y
0!"
03"
0U
0[
1l
1r
1~
1&"
1,"
1T
1Z
1`
11
17"
1:"
1@"
1v"
1*#
1F"
1L"
1R"
1d"
19"
1?"
1o"
1##
1/#
1W"
1]"
14
1:
1j
1p
1v
1|
10"
1R
1X
1i
1o
1{
1#"
1)"
1Q
1W
1]
b1 &
b1 +
b1001110010010011 %
b1001110010010011 *
b1001110010010011 6"
b110000101001011 $
b110000101001011 )
b110000101001011 5"
b110001001111011 #
b110001001111011 (
b110001001111011 0
b1110000111011000 "
b1110000111011000 '
b1110000111011000 /
#2
0A#
0G#
0}#
0%$
0+$
1M#
1S#
1Y#
b101111000001000 !
b101111000001000 .
b101111000001000 >#
0_#
1B#
1H#
1~#
1&$
1,$
0N#
0T#
0Z#
1`#
0|#
1$$
1<$
0R#
1^#
0j#
0?#
0E#
0{#
0#$
0)$
1K#
1Q#
1W#
0]#
0w"
1}"
17#
0M"
1Y"
b11011010100011 ,
b11011010100011 8"
b11011010100011 <#
0e"
05
0;
0q
0w
0}
1A
1G
1M
b101111000001000 -
b101111000001000 2
b101111000001000 ;#
0S
1y"
0!#
09#
1O"
0["
1g"
17
1=
1s
1y
1!"
0C
0I
0O
1U
0v"
1|"
16#
0L"
1X"
0d"
1i"
0o"
1u"
1{"
0##
1)#
1E"
0W"
1c"
04
0:
0p
0v
0|
1@
1F
1L
0R
19
0i
0{
0)"
1E
b11011010100011 %
b11011010100011 *
b11011010100011 6"
b1100010110110111 $
b1100010110110111 )
b1100010110110111 5"
b101111000001000 #
b101111000001000 (
b101111000001000 0
b1110100010010010 "
b1110100010010010 '
b1110100010010010 /
#3
1_#
1k#
1}#
1%$
1+$
17$
0M#
0`#
0l#
0~#
0&$
0,$
08$
0=$
1S#
b1110100101111000 !
b1110100101111000 .
b1110100101111000 >#
0Y#
1N#
1]#
1i#
1{#
1#$
1)$
15$
1>$
1|#
16$
0T#
1Z#
0K#
1S
1_
1q
1w
1}
1+"
0;$
0@#
0X#
1w"
0$$
00$
11#
1F#
1<$
1L#
0^#
1Q#
0W#
0A
0H
0T
0Z
0`
0l
0r
0x
0~
0,"
01"
0;"
0B"
0H"
0S"
0x"
0}"
0+#
02#
08#
1A"
17#
1G"
b11100010010 ,
b11100010010 8"
b11100010010 <#
0Y"
1G
b1110100101111000 -
b1110100101111000 2
b1110100101111000 ;#
0M
18
1>
1C
1D
1J
1P
1V
1[
1\
1b
1h
1m
1n
1t
1z
1""
1("
1."
13"
14"
1="
1>"
1D"
1J"
1P"
1U"
1V"
1\"
1b"
1h"
1n"
1t"
1z"
1!#
1"#
1(#
1-#
1.#
14#
1:#
1C"
19#
1I"
1["
1I
1O
01
07"
0@"
1j"
1p"
1v"
1$#
06#
0F"
1L"
0X"
1^"
1d"
09"
0i"
0{"
0)#
15#
0]"
0c"
14
1p
1v
1*"
0F
0L
1^
09
1i
1u
1{
0#"
1)"
b0 &
b0 +
b1101100011111101 %
b1101100011111101 *
b1101100011111101 6"
b11100010010 $
b11100010010 )
b11100010010 5"
b1100011100111001 #
b1100011100111001 (
b1100011100111001 0
b1110100101111000 "
b1110100101111000 '
b1110100101111000 /
#4
0k#
1M#
1l#
0A#
0q#
0}#
01$
07$
b110110001101000 !
b110110001101000 .
b110110001101000 >#
0=$
0N#
0i#
0L#
1B#
1r#
1~#
12$
18$
1>$
1K#
0_
0G"
1X#
1d#
1p#
0F#
0$$
1*$
10$
1j#
0?#
0o#
0{#
0/$
05$
0;$
1A
1H
1T
1Z
1`
1~
1H"
1S"
1_"
1k"
18#
0A"
0}"
1%#
1+#
b1101001111010100 ,
b1101001111010100 8"
b1101001111010100 <#
1e"
05
0e
0q
0%"
0+"
b110110001101000 -
b110110001101000 2
b110110001101000 ;#
01"
08
0>
0C
0D
0J
0P
0V
0[
0\
0b
0h
0m
0n
0t
0y
0z
0""
0("
0."
04"
0>"
0D"
0J"
0P"
0U"
0V"
0\"
0a"
0b"
0g"
0h"
0m"
0n"
0t"
0y"
0z"
0"#
0'#
0(#
0-#
0.#
04#
0:#
03#
09#
1B"
1x"
1~"
1&#
1,#
12#
1f"
0!"
0I
0U
16
1f
1l
1r
1x
1&"
1,"
12"
11
17"
0:"
0p"
0|"
10#
16#
0L"
0?"
0u"
1{"
1##
1)#
0/#
1c"
04
0p
1|
0*"
00"
1F
1R
0^
13
1c
0i
0o
0u
1#"
0)"
1/"
b1 &
b1 +
b1101001111010100 %
b1101001111010100 *
b1101001111010100 6"
b1000011011100000 $
b1000011011100000 )
b1000011011100000 5"
b110110001101000 #
b110110001101000 (
b110110001101000 0
b1110101011000101 "
b1110101011000101 '
b1110101011000101 /
#5
1A#
0C#
0O#
0U#
0'$
0+$
1?#
1E#
1i#
1@#
1L#
1R#
1$$
15
1;
1_
1;"
1G"
1M"
1}"
0*$
1M#
1S#
0_#
0w#
1%$
0p#
0|#
00$
06$
0X#
0u#
1#$
1c#
06
0<
0B
0H
0T
0Z
0`
0x
0~
0<"
0H"
0N"
0`"
0f"
0~"
0%#
08#
1N#
1T#
0Y#
1`#
1f#
1k#
0q#
1x#
0}#
1&$
1,$
01$
07$
b1100111000100001 !
b1100111000100001 .
b1100111000100001 >#
1=$
0k"
0w"
0+#
01#
b1100111000100001 ,
b1100111000100001 8"
b1100111000100001 <#
0S"
0k
1w
b1110110001100011 -
b1110110001100011 2
b1110110001100011 ;#
1Y
18
1>
1C
1D
1I
1J
1P
1U
1V
1\
1b
1h
1n
1t
1z
1!"
1""
1("
1."
14"
1>"
1D"
1J"
1P"
1V"
1\"
1a"
1b"
1g"
1h"
1n"
1t"
1z"
1"#
1'#
1(#
1.#
14#
19#
1:#
0D#
0J#
0P#
0V#
1[#
0\#
0b#
0g#
0h#
0m#
0n#
1s#
0t#
0z#
1!$
0"$
0($
1-$
0.$
13$
04$
19$
0:$
0?$
0@$
1m"
1y"
1-#
13#
1U"
1m
1y
1[
01
07"
1=#
0j"
1p"
0v"
0*#
00#
1F"
0R"
1X"
19"
0##
0)#
1K"
1]"
14
1:
1d
0j
0v
1$"
1*"
10"
0X
1^
19
0c
1u
0#"
0/"
1?
b10 &
b10 +
b1110011001001000 %
b1110011001001000 *
b1110011001001000 6"
b1100111000100001 $
b1100111000100001 )
b1100111000100001 5"
b1010111111000111 #
b1010111111000111 (
b1010111111000111 0
b1110110001100011 "
b1110110001100011 '
b1110110001100011 /
#6
0A#
1q#
1w#
1}#
17$
0M#
0S#
1Y#
0r#
0x#
0~#
08$
0Z#
0G#
1_#
1+$
0$$
10$
16$
0L#
0R#
1^#
0j#
0?#
0E#
1o#
1u#
1{#
15$
0K#
0Q#
1W#
1B#
1H#
1N#
1T#
0`#
0f#
0l#
0&$
0,$
b1111000101111100 !
b1111000101111100 .
b1111000101111100 >#
0=$
0}"
1+#
11#
0G"
0M"
1Y"
b110001110000001 ,
b110001110000001 8"
b110001110000001 <#
0e"
05
0;
1e
1k
1q
1+"
0A
0G
b1111000101111100 -
b1111000101111100 2
b1111000101111100 ;#
1M
1C#
1D#
1J#
1O#
1P#
1U#
1V#
1\#
1b#
1g#
1h#
1m#
1n#
1t#
1z#
1"$
1'$
1($
1.$
14$
1:$
1?$
1@$
1~"
0,#
02#
1H"
1N"
0Z"
1f"
16
1<
0f
0l
0r
0,"
1B
1H
0N
0=#
1:"
1j"
0p"
1v"
0F"
1L"
1R"
0X"
0^"
0{"
1)#
1/#
0E"
0K"
1W"
0c"
04
0d
1j
1v
0$"
0F
0R
03
09
1c
1i
1o
1)"
0?
0E
1K
b0 &
b0 +
b1001101001010101 %
b1001101001010101 *
b1001101001010101 6"
b110001110000001 $
b110001110000001 )
b110001110000001 5"
b1000011101101010 #
b1000011101101010 (
b1000011101101010 0
b1111000101111100 "
b1111000101111100 '
b1111000101111100 /
#7
1S#
0e#
0s#
0!$
0'$
0U#
0[#
0m#
1Y#
1k#
1q#
0w#
1}#
1%$
0+$
1p#
1|#
1$$
1R#
1X#
0d#
1j#
1E#
0#$
0)$
1/$
05$
1;$
1A#
1Z#
1`#
1f#
1l#
1r#
1x#
1~#
1&$
1,$
11$
18$
b1011101110110101 !
b1011101110110101 .
b1011101110110101 >#
1=$
1k"
1w"
1}"
1M"
1S"
0_"
b1011101110110101 ,
b1011101110110101 8"
b1011101110110101 <#
1e"
1;
0w
0}
1%"
0+"
b1111001010011110 -
b1111001010011110 2
b1111001010011110 ;#
11"
0C#
0D#
0J#
0P#
0V#
0\#
0a#
0b#
1g#
0h#
0n#
0t#
0z#
0"$
0($
0.$
03$
04$
09$
0:$
0?$
0@$
0l"
0x"
0~"
0N"
0T"
1`"
0f"
0<
1x
1~
0&"
1,"
02"
1=#
0:"
1@"
1p"
1*#
10#
0R"
1X"
1^"
0d"
1i"
1u"
1{"
1K"
1Q"
0]"
1c"
14
0:
1d
1p
0v
0|
00"
0@
1X
19
0u
0{
1#"
0)"
1/"
b10 &
b10 +
b110101111011110 %
b110101111011110 *
b110101111011110 6"
b1011101110110101 $
b1011101110110101 )
b1011101110110101 5"
b1100000100011101 #
b1100000100011101 (
b1100000100011101 0
b1111001010011110 "
b1111001010011110 '
b1111001010011110 /
#8
0A#
1G#
1w#
0%$
1M#
0S#
b1001011110011110 !
b1001011110011110 .
b1001011110011110 >#
0_#
1C#
0I#
0y#
1'$
0O#
1U#
1a#
0@#
1F#
1v#
0$$
1L#
0R#
0^#
1?#
0E#
0u#
0{#
1)$
0;"
1A"
1q"
0}"
1G"
0M"
b1001011110011110 ,
b1001011110011110 8"
b1001011110011110 <#
0Y"
15
0;
0k
0q
b1111001011000101 -
b1111001011000101 2
b1111001011000101 ;#
1}
1<"
0B"
0r"
1~"
0H"
1N"
1Z"
06
1<
1l
1r
0~
1:"
0v"
0$#
1F"
1R"
0X"
1d"
09"
1?"
1o"
0{"
1E"
0K"
0W"
04
0d
0j
0*"
10"
1F
0^
13
09
0i
0o
1{
b1101111110001111 %
b1101111110001111 *
b1101111110001111 6"
b1001011110011110 $
b1001011110011110 )
b1001011110011110 5"
b100101000010000 #
b100101000010000 (
b100101000010000 0
b1111001011000101 "
b1111001011000101 '
b1111001011000101 /
#9
0w#
07$
0=$
1S#
1y#
19$
1?$
0A#
0q#
0%$
01$
0M#
0_#
1e#
b101100000010010 !
b101100000010010 .
b101100000010010 >#
0k#
0c#
0i#
0o#
0;$
0U#
0v#
06$
0<$
1C#
1s#
1'$
13$
1O#
1a#
0g#
1m#
1Q#
0Y
0_
0e
01"
1R#
0q"
01#
07#
0@#
0p#
0$$
00$
0L#
0^#
1d#
0j#
1K#
0?#
1{#
1#$
0)$
0/$
15$
1G
1N
1T
1Z
1`
1f
12"
1B"
1M"
1r"
1x"
12#
18#
0;"
0k"
0}"
0+#
0G"
0Y"
1_"
b101100000010010 ,
b101100000010010 8"
b101100000010010 <#
0e"
1A
05
1q
1w
0}
0%"
b11110100110000 -
b11110100110000 2
b11110100110000 ;#
1+"
08
0>
0D
0I
0J
0P
0V
0\
0b
0h
0n
0s
0t
0z
0""
0("
0."
04"
0>"
0C"
0D"
0J"
0O"
0P"
0U"
0V"
0\"
0a"
0b"
0h"
0n"
0t"
0z"
0"#
0(#
0.#
04#
0:#
0y"
1<"
1l"
1~"
1,#
1H"
1T"
1Z"
1`"
1f"
0y
0-"
0C
0O
0U
16
1r
1x
1~
1&"
1,"
11
17"
0:"
0j"
0p"
1v"
0*#
00#
06#
0F"
0d"
19"
0i"
1{"
0)#
0E"
0Q"
1W"
1]"
0c"
1v
1*"
00"
1@
1L
1R
0X
03
1o
1u
0{
0#"
1)"
b11 &
b11 +
b101100000010010 %
b101100000010010 *
b101100000010010 6"
b110001100111011 $
b110001100111011 )
b110001100111011 5"
b11110100110000 #
b11110100110000 (
b11110100110000 0
b1111001100110100 "
b1111001100110100 '
b1111001100110100 /
#10
1A#
0G#
1w#
0}#
1+$
11$
17$
0S#
0e#
b1001000111001001 !
b1001000111001001 .
b1001000111001001 >#
1k#
0C#
1I#
0y#
1!$
0-$
03$
09$
1U#
1g#
0m#
1@#
0F#
1v#
0|#
1*$
10$
16$
0R#
0d#
1j#
1?#
1E#
0{#
05$
1;$
0Q#
0]#
1c#
1i#
1;"
0A"
1q"
0w"
1%#
1+#
11#
0M"
0_"
b1001000111001001 ,
b1001000111001001 8"
b1001000111001001 <#
1e"
15
1;
0q
0+"
11"
0G
0S
1Y
b1101011000100011 -
b1101011000100011 2
b1101011000100011 ;#
1_
0="
1C"
0s"
1y"
0'#
0-#
03#
1O"
1a"
0g"
07
0=
1s
1-"
03"
1I
1U
0[
0a
1:"
0@"
1p"
0v"
1$#
1*#
10#
0L"
0^"
1d"
0?"
1i"
0o"
1##
1)#
0/#
1E"
1Q"
0W"
1c"
14
1:
0p
0*"
10"
0F
0R
1X
1^
0c
1i
0o
0u
1#"
b1001000111001001 %
b1001000111001001 *
b1001000111001001 6"
b1101011011110101 $
b1101011011110101 )
b1101011011110101 5"
b1101011000100011 #
b1101011000100011 (
b1101011000100011 0
b1111001110001000 "
b1111001110001000 '
b1111001110001000 /
