Tarefa02/tb_DMux8Way.vcd
$date
	Tue Jun 20 17:34:40 2023
$end
$version
	Icarus Verilog
$end
$timescale
	1s
$end
$scope module tb_DMux8Way $end
$var wire 1 ! h $end
$var wire 1 " g $end
$var wire 1 # f $end
$var wire 1 $ e $end
$var wire 1 % d $end
$var wire 1 & c $end
$var wire 1 ' b $end
$var wire 1 ( a $end
$var reg 1 ) in $end
$var reg 3 * sel [2:0] $end
$scope module mymodule $end
$var wire 1 ) in $end
$var wire 3 + sel [2:0] $end
$var wire 1 , w6 $end
$var wire 1 - w5 $end
$var wire 1 . w4 $end
$var wire 1 / w3 $end
$var wire 1 0 w2 $end
$var wire 1 1 w1 $end
$var wire 1 ! h $end
$var wire 1 " g $end
$var wire 1 # f $end
$var wire 1 $ e $end
$var wire 1 % d $end
$var wire 1 & c $end
$var wire 1 ' b $end
$var wire 1 ( a $end
$scope module dmux0 $end
$var wire 1 1 a $end
$var wire 1 0 b $end
$var wire 1 ) in $end
$var wire 1 2 sel $end
$var wire 1 3 w1 $end
$upscope $end
$scope module dmux1 $end
$var wire 1 / a $end
$var wire 1 . b $end
$var wire 1 1 in $end
$var wire 1 4 sel $end
$var wire 1 5 w1 $end
$upscope $end
$scope module dmux2 $end
$var wire 1 - a $end
$var wire 1 , b $end
$var wire 1 0 in $end
$var wire 1 6 sel $end
$var wire 1 7 w1 $end
$upscope $end
$scope module dmux3 $end
$var wire 1 ( a $end
$var wire 1 ' b $end
$var wire 1 / in $end
$var wire 1 8 sel $end
$var wire 1 9 w1 $end
$upscope $end
$scope module dmux4 $end
$var wire 1 & a $end
$var wire 1 % b $end
$var wire 1 . in $end
$var wire 1 : sel $end
$var wire 1 ; w1 $end
$upscope $end
$scope module dmux5 $end
$var wire 1 $ a $end
$var wire 1 # b $end
$var wire 1 - in $end
$var wire 1 < sel $end
$var wire 1 = w1 $end
$upscope $end
$scope module dmux6 $end
$var wire 1 " a $end
$var wire 1 ! b $end
$var wire 1 , in $end
$var wire 1 > sel $end
$var wire 1 ? w1 $end
$upscope $end
$upscope $end
$upscope $end
$enddefinitions $end
$comment Show the parameter values. $end
$dumpall
$end
#0
$dumpvars
1?
0>
1=
0<
1;
0:
19
08
17
06
15
04
13
02
01
00
0/
0.
0-
0,
b0 +
b0 *
0)
0(
0'
0&
0%
0$
0#
0"
0!
$end
#1
09
0;
0=
0?
18
1:
1<
1>
b1 *
b1 +
#2
05
07
19
1;
1=
1?
14
16
08
0:
0<
0>
b10 *
b10 +
#3
09
0;
0=
0?
18
1:
1<
1>
b11 *
b11 +
#4
03
15
17
19
1;
1=
1?
12
04
06
08
0:
0<
0>
b100 *
b100 +
#5
09
0;
0=
0?
18
1:
1<
1>
b101 *
b101 +
#6
05
07
19
1;
1=
1?
14
16
08
0:
0<
0>
b110 *
b110 +
#7
09
0;
0=
0?
18
1:
1<
1>
b111 *
b111 +
#8
1(
1/
11
13
15
17
19
1;
1=
1?
02
04
06
08
0:
0<
0>
00
b0 *
b0 +
1)
#9
0(
1'
09
0;
0=
0?
18
1:
1<
1>
b1 *
b1 +
#10
0/
0(
1&
1.
05
07
0'
19
1;
1=
1?
14
16
08
0:
0<
0>
b10 *
b10 +
#11
0&
09
1%
0;
0=
0?
18
1:
1<
1>
b11 *
b11 +
#12
0(
1$
01
0/
1-
10
03
0.
15
17
19
0%
1;
1=
1?
12
04
06
08
0:
0<
0>
b100 *
b100 +
#13
0$
09
0;
1#
0=
0?
18
1:
1<
1>
b101 *
b101 +
#14
0-
0$
1"
05
1,
07
19
1;
0#
1=
1?
14
16
08
0:
0<
0>
b110 *
b110 +
#15
0"
09
0;
0=
1!
0?
18
1:
1<
1>
b111 *
b111 +
