Tarefa02/tb_Register16.vcd
$date
	Fri Apr 14 22:39:32 2023
$end
$version
	Icarus Verilog
$end
$timescale
	1s
$end
$scope module tb_Register16 $end
$var wire 16 ! out [15:0] $end
$var reg 1 " clk $end
$var reg 16 # in [15:0] $end
$var reg 1 $ load $end
$scope module reg0 $end
$var wire 1 " clk $end
$var wire 16 % in [15:0] $end
$var wire 1 $ load $end
$var wire 16 & out [15:0] $end
$scope module bit0 $end
$var wire 1 " clk $end
$var wire 1 ' in $end
$var wire 1 $ load $end
$var wire 1 ( w1 $end
$var wire 1 ) out $end
$scope module dl0 $end
$var wire 1 " clk $end
$var wire 1 * notq $end
$var wire 1 ) q $end
$var wire 1 + w1 $end
$var wire 1 , w2 $end
$var wire 1 - w3 $end
$var wire 1 . w4 $end
$var wire 1 / w5 $end
$var wire 1 0 w6 $end
$var wire 1 1 w7 $end
$var wire 1 2 w8 $end
$var wire 1 3 w9 $end
$var wire 1 ( d $end
$upscope $end
$scope module mux0 $end
$var wire 1 ) a $end
$var wire 1 ' b $end
$var wire 1 ( out $end
$var wire 1 $ sel $end
$var wire 1 4 w1 $end
$var wire 1 5 w2 $end
$var wire 1 6 w3 $end
$upscope $end
$upscope $end
$scope module bit1 $end
$var wire 1 " clk $end
$var wire 1 7 in $end
$var wire 1 $ load $end
$var wire 1 8 w1 $end
$var wire 1 9 out $end
$scope module dl0 $end
$var wire 1 " clk $end
$var wire 1 : notq $end
$var wire 1 9 q $end
$var wire 1 ; w1 $end
$var wire 1 < w2 $end
$var wire 1 = w3 $end
$var wire 1 > w4 $end
$var wire 1 ? w5 $end
$var wire 1 @ w6 $end
$var wire 1 A w7 $end
$var wire 1 B w8 $end
$var wire 1 C w9 $end
$var wire 1 8 d $end
$upscope $end
$scope module mux0 $end
$var wire 1 9 a $end
$var wire 1 7 b $end
$var wire 1 8 out $end
$var wire 1 $ sel $end
$var wire 1 D w1 $end
$var wire 1 E w2 $end
$var wire 1 F w3 $end
$upscope $end
$upscope $end
$scope module bit10 $end
$var wire 1 " clk $end
$var wire 1 G in $end
$var wire 1 $ load $end
$var wire 1 H w1 $end
$var wire 1 I out $end
$scope module dl0 $end
$var wire 1 " clk $end
$var wire 1 J notq $end
$var wire 1 I q $end
$var wire 1 K w1 $end
$var wire 1 L w2 $end
$var wire 1 M w3 $end
$var wire 1 N w4 $end
$var wire 1 O w5 $end
$var wire 1 P w6 $end
$var wire 1 Q w7 $end
$var wire 1 R w8 $end
$var wire 1 S w9 $end
$var wire 1 H d $end
$upscope $end
$scope module mux0 $end
$var wire 1 I a $end
$var wire 1 G b $end
$var wire 1 H out $end
$var wire 1 $ sel $end
$var wire 1 T w1 $end
$var wire 1 U w2 $end
$var wire 1 V w3 $end
$upscope $end
$upscope $end
$scope module bit11 $end
$var wire 1 " clk $end
$var wire 1 W in $end
$var wire 1 $ load $end
$var wire 1 X w1 $end
$var wire 1 Y out $end
$scope module dl0 $end
$var wire 1 " clk $end
$var wire 1 Z notq $end
$var wire 1 Y q $end
$var wire 1 [ w1 $end
$var wire 1 \ w2 $end
$var wire 1 ] w3 $end
$var wire 1 ^ w4 $end
$var wire 1 _ w5 $end
$var wire 1 ` w6 $end
$var wire 1 a w7 $end
$var wire 1 b w8 $end
$var wire 1 c w9 $end
$var wire 1 X d $end
$upscope $end
$scope module mux0 $end
$var wire 1 Y a $end
$var wire 1 W b $end
$var wire 1 X out $end
$var wire 1 $ sel $end
$var wire 1 d w1 $end
$var wire 1 e w2 $end
$var wire 1 f w3 $end
$upscope $end
$upscope $end
$scope module bit12 $end
$var wire 1 " clk $end
$var wire 1 g in $end
$var wire 1 $ load $end
$var wire 1 h w1 $end
$var wire 1 i out $end
$scope module dl0 $end
$var wire 1 " clk $end
$var wire 1 j notq $end
$var wire 1 i q $end
$var wire 1 k w1 $end
$var wire 1 l w2 $end
$var wire 1 m w3 $end
$var wire 1 n w4 $end
$var wire 1 o w5 $end
$var wire 1 p w6 $end
$var wire 1 q w7 $end
$var wire 1 r w8 $end
$var wire 1 s w9 $end
$var wire 1 h d $end
$upscope $end
$scope module mux0 $end
$var wire 1 i a $end
$var wire 1 g b $end
$var wire 1 h out $end
$var wire 1 $ sel $end
$var wire 1 t w1 $end
$var wire 1 u w2 $end
$var wire 1 v w3 $end
$upscope $end
$upscope $end
$scope module bit13 $end
$var wire 1 " clk $end
$var wire 1 w in $end
$var wire 1 $ load $end
$var wire 1 x w1 $end
$var wire 1 y out $end
$scope module dl0 $end
$var wire 1 " clk $end
$var wire 1 z notq $end
$var wire 1 y q $end
$var wire 1 { w1 $end
$var wire 1 | w2 $end
$var wire 1 } w3 $end
$var wire 1 ~ w4 $end
$var wire 1 !" w5 $end
$var wire 1 "" w6 $end
$var wire 1 #" w7 $end
$var wire 1 $" w8 $end
$var wire 1 %" w9 $end
$var wire 1 x d $end
$upscope $end
$scope module mux0 $end
$var wire 1 y a $end
$var wire 1 w b $end
$var wire 1 x out $end
$var wire 1 $ sel $end
$var wire 1 &" w1 $end
$var wire 1 '" w2 $end
$var wire 1 (" w3 $end
$upscope $end
$upscope $end
$scope module bit14 $end
$var wire 1 " clk $end
$var wire 1 )" in $end
$var wire 1 $ load $end
$var wire 1 *" w1 $end
$var wire 1 +" out $end
$scope module dl0 $end
$var wire 1 " clk $end
$var wire 1 ," notq $end
$var wire 1 +" q $end
$var wire 1 -" w1 $end
$var wire 1 ." w2 $end
$var wire 1 /" w3 $end
$var wire 1 0" w4 $end
$var wire 1 1" w5 $end
$var wire 1 2" w6 $end
$var wire 1 3" w7 $end
$var wire 1 4" w8 $end
$var wire 1 5" w9 $end
$var wire 1 *" d $end
$upscope $end
$scope module mux0 $end
$var wire 1 +" a $end
$var wire 1 )" b $end
$var wire 1 *" out $end
$var wire 1 $ sel $end
$var wire 1 6" w1 $end
$var wire 1 7" w2 $end
$var wire 1 8" w3 $end
$upscope $end
$upscope $end
$scope module bit15 $end
$var wire 1 " clk $end
$var wire 1 9" in $end
$var wire 1 $ load $end
$var wire 1 :" w1 $end
$var wire 1 ;" out $end
$scope module dl0 $end
$var wire 1 " clk $end
$var wire 1 <" notq $end
$var wire 1 ;" q $end
$var wire 1 =" w1 $end
$var wire 1 >" w2 $end
$var wire 1 ?" w3 $end
$var wire 1 @" w4 $end
$var wire 1 A" w5 $end
$var wire 1 B" w6 $end
$var wire 1 C" w7 $end
$var wire 1 D" w8 $end
$var wire 1 E" w9 $end
$var wire 1 :" d $end
$upscope $end
$scope module mux0 $end
$var wire 1 ;" a $end
$var wire 1 9" b $end
$var wire 1 :" out $end
$var wire 1 $ sel $end
$var wire 1 F" w1 $end
$var wire 1 G" w2 $end
$var wire 1 H" w3 $end
$upscope $end
$upscope $end
$scope module bit2 $end
$var wire 1 " clk $end
$var wire 1 I" in $end
$var wire 1 $ load $end
$var wire 1 J" w1 $end
$var wire 1 K" out $end
$scope module dl0 $end
$var wire 1 " clk $end
$var wire 1 L" notq $end
$var wire 1 K" q $end
$var wire 1 M" w1 $end
$var wire 1 N" w2 $end
$var wire 1 O" w3 $end
$var wire 1 P" w4 $end
$var wire 1 Q" w5 $end
$var wire 1 R" w6 $end
$var wire 1 S" w7 $end
$var wire 1 T" w8 $end
$var wire 1 U" w9 $end
$var wire 1 J" d $end
$upscope $end
$scope module mux0 $end
$var wire 1 K" a $end
$var wire 1 I" b $end
$var wire 1 J" out $end
$var wire 1 $ sel $end
$var wire 1 V" w1 $end
$var wire 1 W" w2 $end
$var wire 1 X" w3 $end
$upscope $end
$upscope $end
$scope module bit3 $end
$var wire 1 " clk $end
$var wire 1 Y" in $end
$var wire 1 $ load $end
$var wire 1 Z" w1 $end
$var wire 1 [" out $end
$scope module dl0 $end
$var wire 1 " clk $end
$var wire 1 \" notq $end
$var wire 1 [" q $end
$var wire 1 ]" w1 $end
$var wire 1 ^" w2 $end
$var wire 1 _" w3 $end
$var wire 1 `" w4 $end
$var wire 1 a" w5 $end
$var wire 1 b" w6 $end
$var wire 1 c" w7 $end
$var wire 1 d" w8 $end
$var wire 1 e" w9 $end
$var wire 1 Z" d $end
$upscope $end
$scope module mux0 $end
$var wire 1 [" a $end
$var wire 1 Y" b $end
$var wire 1 Z" out $end
$var wire 1 $ sel $end
$var wire 1 f" w1 $end
$var wire 1 g" w2 $end
$var wire 1 h" w3 $end
$upscope $end
$upscope $end
$scope module bit4 $end
$var wire 1 " clk $end
$var wire 1 i" in $end
$var wire 1 $ load $end
$var wire 1 j" w1 $end
$var wire 1 k" out $end
$scope module dl0 $end
$var wire 1 " clk $end
$var wire 1 l" notq $end
$var wire 1 k" q $end
$var wire 1 m" w1 $end
$var wire 1 n" w2 $end
$var wire 1 o" w3 $end
$var wire 1 p" w4 $end
$var wire 1 q" w5 $end
$var wire 1 r" w6 $end
$var wire 1 s" w7 $end
$var wire 1 t" w8 $end
$var wire 1 u" w9 $end
$var wire 1 j" d $end
$upscope $end
$scope module mux0 $end
$var wire 1 k" a $end
$var wire 1 i" b $end
$var wire 1 j" out $end
$var wire 1 $ sel $end
$var wire 1 v" w1 $end
$var wire 1 w" w2 $end
$var wire 1 x" w3 $end
$upscope $end
$upscope $end
$scope module bit5 $end
$var wire 1 " clk $end
$var wire 1 y" in $end
$var wire 1 $ load $end
$var wire 1 z" w1 $end
$var wire 1 {" out $end
$scope module dl0 $end
$var wire 1 " clk $end
$var wire 1 |" notq $end
$var wire 1 {" q $end
$var wire 1 }" w1 $end
$var wire 1 ~" w2 $end
$var wire 1 !# w3 $end
$var wire 1 "# w4 $end
$var wire 1 ## w5 $end
$var wire 1 $# w6 $end
$var wire 1 %# w7 $end
$var wire 1 &# w8 $end
$var wire 1 '# w9 $end
$var wire 1 z" d $end
$upscope $end
$scope module mux0 $end
$var wire 1 {" a $end
$var wire 1 y" b $end
$var wire 1 z" out $end
$var wire 1 $ sel $end
$var wire 1 (# w1 $end
$var wire 1 )# w2 $end
$var wire 1 *# w3 $end
$upscope $end
$upscope $end
$scope module bit6 $end
$var wire 1 " clk $end
$var wire 1 +# in $end
$var wire 1 $ load $end
$var wire 1 ,# w1 $end
$var wire 1 -# out $end
$scope module dl0 $end
$var wire 1 " clk $end
$var wire 1 .# notq $end
$var wire 1 -# q $end
$var wire 1 /# w1 $end
$var wire 1 0# w2 $end
$var wire 1 1# w3 $end
$var wire 1 2# w4 $end
$var wire 1 3# w5 $end
$var wire 1 4# w6 $end
$var wire 1 5# w7 $end
$var wire 1 6# w8 $end
$var wire 1 7# w9 $end
$var wire 1 ,# d $end
$upscope $end
$scope module mux0 $end
$var wire 1 -# a $end
$var wire 1 +# b $end
$var wire 1 ,# out $end
$var wire 1 $ sel $end
$var wire 1 8# w1 $end
$var wire 1 9# w2 $end
$var wire 1 :# w3 $end
$upscope $end
$upscope $end
$scope module bit7 $end
$var wire 1 " clk $end
$var wire 1 ;# in $end
$var wire 1 $ load $end
$var wire 1 <# w1 $end
$var wire 1 =# out $end
$scope module dl0 $end
$var wire 1 " clk $end
$var wire 1 ># notq $end
$var wire 1 =# q $end
$var wire 1 ?# w1 $end
$var wire 1 @# w2 $end
$var wire 1 A# w3 $end
$var wire 1 B# w4 $end
$var wire 1 C# w5 $end
$var wire 1 D# w6 $end
$var wire 1 E# w7 $end
$var wire 1 F# w8 $end
$var wire 1 G# w9 $end
$var wire 1 <# d $end
$upscope $end
$scope module mux0 $end
$var wire 1 =# a $end
$var wire 1 ;# b $end
$var wire 1 <# out $end
$var wire 1 $ sel $end
$var wire 1 H# w1 $end
$var wire 1 I# w2 $end
$var wire 1 J# w3 $end
$upscope $end
$upscope $end
$scope module bit8 $end
$var wire 1 " clk $end
$var wire 1 K# in $end
$var wire 1 $ load $end
$var wire 1 L# w1 $end
$var wire 1 M# out $end
$scope module dl0 $end
$var wire 1 " clk $end
$var wire 1 N# notq $end
$var wire 1 M# q $end
$var wire 1 O# w1 $end
$var wire 1 P# w2 $end
$var wire 1 Q# w3 $end
$var wire 1 R# w4 $end
$var wire 1 S# w5 $end
$var wire 1 T# w6 $end
$var wire 1 U# w7 $end
$var wire 1 V# w8 $end
$var wire 1 W# w9 $end
$var wire 1 L# d $end
$upscope $end
$scope module mux0 $end
$var wire 1 M# a $end
$var wire 1 K# b $end
$var wire 1 L# out $end
$var wire 1 $ sel $end
$var wire 1 X# w1 $end
$var wire 1 Y# w2 $end
$var wire 1 Z# w3 $end
$upscope $end
$upscope $end
$scope module bit9 $end
$var wire 1 " clk $end
$var wire 1 [# in $end
$var wire 1 $ load $end
$var wire 1 \# w1 $end
$var wire 1 ]# out $end
$scope module dl0 $end
$var wire 1 " clk $end
$var wire 1 ^# notq $end
$var wire 1 ]# q $end
$var wire 1 _# w1 $end
$var wire 1 `# w2 $end
$var wire 1 a# w3 $end
$var wire 1 b# w4 $end
$var wire 1 c# w5 $end
$var wire 1 d# w6 $end
$var wire 1 e# w7 $end
$var wire 1 f# w8 $end
$var wire 1 g# w9 $end
$var wire 1 \# d $end
$upscope $end
$scope module mux0 $end
$var wire 1 ]# a $end
$var wire 1 [# b $end
$var wire 1 \# out $end
$var wire 1 $ sel $end
$var wire 1 h# w1 $end
$var wire 1 i# w2 $end
$var wire 1 j# w3 $end
$upscope $end
$upscope $end
$upscope $end
$upscope $end
$enddefinitions $end
$comment Show the parameter values. $end
$dumpall
$end
#0
$dumpvars
0j#
1i#
1h#
xg#
xf#
1e#
xd#
xc#
1b#
xa#
1`#
1_#
x^#
x]#
0\#
0[#
0Z#
1Y#
1X#
xW#
xV#
1U#
xT#
xS#
1R#
xQ#
1P#
1O#
xN#
xM#
0L#
0K#
0J#
1I#
1H#
xG#
xF#
1E#
xD#
xC#
1B#
xA#
1@#
1?#
x>#
x=#
0<#
0;#
0:#
19#
18#
x7#
x6#
15#
x4#
x3#
12#
x1#
10#
1/#
x.#
x-#
0,#
0+#
0*#
1)#
1(#
x'#
x&#
1%#
x$#
x##
1"#
x!#
1~"
1}"
x|"
x{"
0z"
0y"
0x"
1w"
1v"
xu"
xt"
1s"
xr"
xq"
1p"
xo"
1n"
1m"
xl"
xk"
0j"
0i"
0h"
1g"
1f"
xe"
xd"
1c"
xb"
xa"
1`"
x_"
1^"
1]"
x\"
x["
0Z"
0Y"
0X"
1W"
1V"
xU"
xT"
1S"
xR"
xQ"
1P"
xO"
1N"
1M"
xL"
xK"
0J"
0I"
0H"
1G"
1F"
xE"
xD"
1C"
xB"
xA"
1@"
x?"
1>"
1="
x<"
x;"
0:"
09"
08"
17"
16"
x5"
x4"
13"
x2"
x1"
10"
x/"
1."
1-"
x,"
x+"
0*"
0)"
0("
1'"
1&"
x%"
x$"
1#"
x""
x!"
1~
x}
1|
1{
xz
xy
0x
0w
0v
1u
1t
xs
xr
1q
xp
xo
1n
xm
1l
1k
xj
xi
0h
0g
0f
1e
1d
xc
xb
1a
x`
x_
1^
x]
1\
1[
xZ
xY
0X
0W
0V
1U
1T
xS
xR
1Q
xP
xO
1N
xM
1L
1K
xJ
xI
0H
0G
0F
1E
1D
xC
xB
1A
x@
x?
1>
x=
1<
1;
x:
x9
08
07
06
15
14
x3
x2
11
x0
x/
1.
x-
1,
1+
x*
x)
0(
0'
bx &
b0 %
1$
b0 #
0"
bx !
$end
#1
10
1@
1P
1`
1p
1""
12"
1B"
1R"
1b"
1r"
1$#
14#
1D#
1T#
1d#
0/
0?
0O
0_
0o
0!"
01"
0A"
0Q"
0a"
0q"
0##
03#
0C#
0S#
0c#
1-
12
13
1=
1B
1C
1M
1R
1S
1]
1b
1c
1m
1r
1s
1}
1$"
1%"
1/"
14"
15"
1?"
1D"
1E"
1O"
1T"
1U"
1_"
1d"
1e"
1o"
1t"
1u"
1!#
1&#
1'#
11#
16#
17#
1A#
1F#
1G#
1Q#
1V#
1W#
1a#
1f#
1g#
0.
01
0>
0A
0N
0Q
0^
0a
0n
0q
0~
0#"
00"
03"
0@"
0C"
0P"
0S"
0`"
0c"
0p"
0s"
0"#
0%#
02#
05#
0B#
0E#
0R#
0U#
0b#
0e#
1"
#2
0)
09
0I
0Y
0i
0y
0+"
0;"
0K"
0["
0k"
0{"
0-#
0=#
0M#
b0 !
b0 &
0]#
1*
1:
1J
1Z
1j
1z
1,"
1<"
1L"
1\"
1l"
1|"
1.#
1>#
1N#
1^#
03
0C
0S
0c
0s
0%"
05"
0E"
0U"
0e"
0u"
0'#
07#
0G#
0W#
0g#
1.
11
1>
1A
1N
1Q
1^
1a
1n
1q
1~
1#"
10"
13"
1@"
1C"
1P"
1S"
1`"
1c"
1p"
1s"
1"#
1%#
12#
15#
1B#
1E#
1R#
1U#
1b#
1e#
0"
#3
13
1C
1S
1c
1s
1%"
15"
1E"
1U"
1e"
1u"
1'#
17#
1G#
1W#
1g#
0.
01
0>
0A
0N
0Q
0^
0a
0n
0q
0~
0#"
00"
03"
0@"
0C"
0P"
0S"
0`"
0c"
0p"
0s"
0"#
0%#
02#
05#
0B#
0E#
0R#
0U#
0b#
0e#
1"
#4
03
0C
0S
0c
0s
0%"
05"
0E"
0U"
0e"
0u"
0'#
07#
0G#
0W#
0g#
1.
11
1>
1A
1N
1Q
1^
1a
1n
1q
1~
1#"
10"
13"
1@"
1C"
1P"
1S"
1`"
1c"
1p"
1s"
1"#
1%#
12#
15#
1B#
1E#
1R#
1U#
1b#
1e#
0"
#5
13
1C
1S
1c
1s
1%"
15"
1E"
1U"
1e"
1u"
1'#
17#
1G#
1W#
1g#
0.
01
0>
0A
0N
0Q
0^
0a
0n
0q
0~
0#"
00"
03"
0@"
0C"
0P"
0S"
0`"
0c"
0p"
0s"
0"#
0%#
02#
05#
0B#
0E#
0R#
0U#
0b#
0e#
1"
#6
03
0C
0S
0c
0s
0%"
05"
0E"
0U"
0e"
0u"
0'#
07#
0G#
0W#
0g#
1.
11
1>
1A
1N
1Q
1^
1a
1n
1q
1~
1#"
10"
13"
1@"
1C"
1P"
1S"
1`"
1c"
1p"
1s"
1"#
1%#
12#
15#
1B#
1E#
1R#
1U#
1b#
1e#
16
1F
1V
1f
1v
1("
18"
1H"
1X"
1h"
1x"
1*#
1:#
1J#
1Z#
1j#
17
1I"
1+#
1[#
1G
0"
0$
b11001000110 #
b11001000110 %
#7
13
1C
1S
1c
1s
1%"
15"
1E"
1U"
1e"
1u"
1'#
17#
1G#
1W#
1g#
0.
01
0>
0A
0N
0Q
0^
0a
0n
0q
0~
0#"
00"
03"
0@"
0C"
0P"
0S"
0`"
0c"
0p"
0s"
0"#
0%#
02#
05#
0B#
0E#
0R#
0U#
0b#
0e#
1"
#8
03
0C
0S
0c
0s
0%"
05"
0E"
0U"
0e"
0u"
0'#
07#
0G#
0W#
0g#
1.
11
1>
1A
1N
1Q
1^
1a
1n
1q
1~
1#"
10"
13"
1@"
1C"
1P"
1S"
1`"
1c"
1p"
1s"
1"#
1%#
12#
15#
1B#
1E#
1R#
1U#
1b#
1e#
0"
#9
0`
0]
0$#
0!#
04#
01#
1_
1##
13#
0\
0[
0~"
0}"
00#
0/#
13
1C
1S
1c
1s
1%"
15"
1E"
1U"
1e"
1u"
1'#
17#
1G#
1W#
1g#
1X
1z"
1,#
0.
01
0>
0A
0N
0Q
1^
0a
0n
0q
0~
0#"
00"
03"
0@"
0C"
0P"
0S"
0`"
0c"
0p"
0s"
1"#
0%#
12#
05#
0B#
0E#
0R#
0U#
0b#
0e#
06
0F
0V
0e
0f
0v
0("
08"
0H"
0X"
0h"
0x"
0)#
0*#
09#
0:#
0J#
0Z#
0j#
07
0I"
1y"
0[#
0G
1W
1"
1$
b100001100000 #
b100001100000 %
#10
0Z
0|"
0.#
1Y
1{"
b100001100000 !
b100001100000 &
1-#
03
0C
0S
0b
0s
0%"
05"
0E"
0U"
0e"
0u"
0&#
06#
0G#
0W#
0g#
1.
11
1>
1A
1N
1Q
1\
1a
1n
1q
1~
1#"
10"
13"
1@"
1C"
1P"
1S"
1`"
1c"
1p"
1s"
1~"
1%#
10#
15#
1B#
1E#
1R#
1U#
1b#
1e#
0"
#11
13
1C
1S
1b
1s
1%"
15"
1E"
1U"
1e"
1u"
1&#
16#
1G#
1W#
1g#
0.
01
0>
0A
0N
0Q
0\
0a
0n
0q
0~
0#"
00"
03"
0@"
0C"
0P"
0S"
0`"
0c"
0p"
0s"
0~"
0%#
00#
05#
0B#
0E#
0R#
0U#
0b#
0e#
1"
#12
03
0C
0S
0b
0s
0%"
05"
0E"
0U"
0e"
0u"
0&#
06#
0G#
0W#
0g#
0d
0(#
08#
1.
11
1>
1A
1N
1Q
1\
1a
1n
1q
1~
1#"
10"
13"
1@"
1C"
1P"
1S"
1`"
1c"
1p"
1s"
1~"
1%#
10#
15#
1B#
1E#
1R#
1U#
1b#
1e#
16
1F
1V
1e
1f
1v
1("
18"
1H"
1X"
1h"
1x"
1)#
1*#
19#
1:#
1J#
1Z#
1j#
1'
1I"
1[#
0W
1g
0"
0$
b1001001100101 #
b1001001100101 %
#13
13
1C
1S
1b
1s
1%"
15"
1E"
1U"
1e"
1u"
1&#
16#
1G#
1W#
1g#
0.
01
0>
0A
0N
0Q
0\
0a
0n
0q
0~
0#"
00"
03"
0@"
0C"
0P"
0S"
0`"
0c"
0p"
0s"
0~"
0%#
00#
05#
0B#
0E#
0R#
0U#
0b#
0e#
1"
#14
03
0C
0S
0b
0s
0%"
05"
0E"
0U"
0e"
0u"
0&#
06#
0G#
0W#
0g#
1.
11
1>
1A
1N
1Q
1\
1a
1n
1q
1~
1#"
10"
13"
1@"
1C"
1P"
1S"
1`"
1c"
1p"
1s"
1~"
1%#
10#
15#
1B#
1E#
1R#
1U#
1b#
1e#
0"
#15
1`
1$#
14#
0_
0##
03#
1]
1!#
11#
00
0-
0@
0=
0^
0p
0m
0b"
0_"
0r"
0o"
0"#
02#
0D#
0A#
0T#
0Q#
0d#
0a#
1/
1?
1[
1o
1a"
1q"
1}"
1/#
1C#
1S#
1c#
0,
0+
0<
0;
0X
0l
0k
0^"
0]"
0n"
0m"
0z"
0,#
0@#
0?#
0P#
0O#
0`#
0_#
13
1C
1S
1b
1s
1%"
15"
1E"
1U"
1e"
1u"
1&#
16#
1G#
1W#
1g#
1(
18
1d
1h
1Z"
1j"
1(#
18#
1<#
1L#
1\#
1.
01
1>
0A
0N
0Q
1\
0a
1n
0q
0~
0#"
00"
03"
0@"
0C"
0P"
0S"
1`"
0c"
1p"
0s"
1~"
0%#
10#
05#
1B#
0E#
1R#
0U#
1b#
0e#
05
06
0E
0F
0V
0f
0u
0v
0("
08"
0H"
0X"
0g"
0h"
0w"
0x"
0*#
0:#
0I#
0J#
0Y#
0Z#
0i#
0j#
17
0I"
1Y"
1i"
0y"
0+#
1;#
1K#
1"
1$
b1001110011011 #
b1001110011011 %
#16
0*
0:
0Y
0j
0\"
0l"
0{"
0-#
0>#
0N#
0^#
1)
19
1Z
1i
1["
1k"
1|"
1.#
1=#
1M#
b1001110011011 !
b1001110011011 &
1]#
02
0B
0S
0c
0r
0%"
05"
0E"
0U"
0d"
0t"
0'#
07#
0F#
0V#
0f#
1,
11
1<
1A
1N
1Q
1^
1a
1l
1q
1~
1#"
10"
13"
1@"
1C"
1P"
1S"
1^"
1c"
1n"
1s"
1"#
1%#
12#
15#
1@#
1E#
1P#
1U#
1`#
1e#
0"
#17
12
1B
1S
1c
1r
1%"
15"
1E"
1U"
1d"
1t"
1'#
17#
1F#
1V#
1f#
0,
01
0<
0A
0N
0Q
0^
0a
0l
0q
0~
0#"
00"
03"
0@"
0C"
0P"
0S"
0^"
0c"
0n"
0s"
0"#
0%#
02#
05#
0@#
0E#
0P#
0U#
0`#
0e#
1"
#18
02
0B
0S
0c
0r
0%"
05"
0E"
0U"
0d"
0t"
0'#
07#
0F#
0V#
0f#
04
0D
0t
0f"
0v"
0H#
0X#
0h#
1,
11
1<
1A
1N
1Q
1^
1a
1l
1q
1~
1#"
10"
13"
1@"
1C"
1P"
1S"
1^"
1c"
1n"
1s"
1"#
1%#
12#
15#
1@#
1E#
1P#
1U#
1`#
1e#
15
16
1E
1F
1V
1f
1u
1v
1("
18"
1H"
1X"
1g"
1h"
1w"
1x"
1*#
1:#
1I#
1J#
1Y#
1Z#
1i#
1j#
0'
1I"
0Y"
1y"
1+#
0;#
0K#
1G
1W
0"
0$
b1111001110110 #
b1111001110110 %
#19
12
1B
1S
1c
1r
1%"
15"
1E"
1U"
1d"
1t"
1'#
17#
1F#
1V#
1f#
0,
01
0<
0A
0N
0Q
0^
0a
0l
0q
0~
0#"
00"
03"
0@"
0C"
0P"
0S"
0^"
0c"
0n"
0s"
0"#
0%#
02#
05#
0@#
0E#
0P#
0U#
0`#
0e#
1"
#20
02
0B
0S
0c
0r
0%"
05"
0E"
0U"
0d"
0t"
0'#
07#
0F#
0V#
0f#
1,
11
1<
1A
1N
1Q
1^
1a
1l
1q
1~
1#"
10"
13"
1@"
1C"
1P"
1S"
1^"
1c"
1n"
1s"
1"#
1%#
12#
15#
1@#
1E#
1P#
1U#
1`#
1e#
0"
#21
10
1@
1p
1b"
1D#
1T#
1d#
0/
0?
0o
0a"
0C#
0S#
0c#
1-
1=
1m
1_"
1A#
1Q#
1a#
0.
0>
0n
0""
0}
0R"
0O"
0`"
0$#
0!#
04#
01#
0B#
0R#
0b#
1+
1;
1k
1!"
1Q"
1]"
1##
13#
1?#
1O#
1_#
0(
08
0h
0|
0{
0N"
0M"
0Z"
0~"
0}"
00#
0/#
0<#
0L#
0\#
12
1B
1S
1c
1r
1%"
15"
1E"
1U"
1d"
1t"
1'#
17#
1F#
1V#
1f#
14
1D
1t
1x
1J"
1f"
1v"
1z"
1,#
1H#
1X#
1h#
1,
01
1<
0A
0N
0Q
0^
0a
1l
0q
1~
0#"
00"
03"
0@"
0C"
1P"
0S"
1^"
0c"
0n"
0s"
1"#
0%#
12#
05#
1@#
0E#
1P#
0U#
1`#
0e#
06
0F
0V
0f
0v
0'"
0("
08"
0H"
0W"
0X"
0h"
0w"
0x"
0)#
0*#
09#
0:#
0J#
0Z#
0j#
07
0[#
0G
0W
0g
1w
1"
1$
b10000001110100 #
b10000001110100 %
#22
0)
09
0i
0z
0L"
0["
0|"
0.#
0=#
0M#
0]#
1*
1:
1j
1y
1K"
1\"
1{"
b10000001110100 !
b10000001110100 &
1-#
1>#
1N#
1^#
03
0C
0S
0c
0s
0$"
05"
0E"
0T"
0e"
0t"
0&#
06#
0G#
0W#
0g#
1.
11
1>
1A
1N
1Q
1^
1a
1n
1q
1|
1#"
10"
13"
1@"
1C"
1N"
1S"
1`"
1c"
1n"
1s"
1~"
1%#
10#
15#
1B#
1E#
1R#
1U#
1b#
1e#
0"
#23
13
1C
1S
1c
1s
1$"
15"
1E"
1T"
1e"
1t"
1&#
16#
1G#
1W#
1g#
0.
01
0>
0A
0N
0Q
0^
0a
0n
0q
0|
0#"
00"
03"
0@"
0C"
0N"
0S"
0`"
0c"
0n"
0s"
0~"
0%#
00#
05#
0B#
0E#
0R#
0U#
0b#
0e#
1"
#24
03
0C
0S
0c
0s
0$"
05"
0E"
0T"
0e"
0t"
0&#
06#
0G#
0W#
0g#
0&"
0V"
0v"
0(#
08#
1.
11
1>
1A
1N
1Q
1^
1a
1n
1q
1|
1#"
10"
13"
1@"
1C"
1N"
1S"
1`"
1c"
1n"
1s"
1~"
1%#
10#
15#
1B#
1E#
1R#
1U#
1b#
1e#
16
1F
1V
1f
1v
1'"
1("
18"
1H"
1W"
1X"
1h"
1w"
1x"
1)#
1*#
19#
1:#
1J#
1Z#
1j#
0I"
1Y"
0i"
1K#
1G
0"
0$
b10010101101000 #
b10010101101000 %
#25
13
1C
1S
1c
1s
1$"
15"
1E"
1T"
1e"
1t"
1&#
16#
1G#
1W#
1g#
0.
01
0>
0A
0N
0Q
0^
0a
0n
0q
0|
0#"
00"
03"
0@"
0C"
0N"
0S"
0`"
0c"
0n"
0s"
0~"
0%#
00#
05#
0B#
0E#
0R#
0U#
0b#
0e#
1"
#26
03
0C
0S
0c
0s
0$"
05"
0E"
0T"
0e"
0t"
0&#
06#
0G#
0W#
0g#
1.
11
1>
1A
1N
1Q
1^
1a
1n
1q
1|
1#"
10"
13"
1@"
1C"
1N"
1S"
1`"
1c"
1n"
1s"
1~"
1%#
10#
15#
1B#
1E#
1R#
1U#
1b#
1e#
0"
#27
1$#
14#
0##
03#
1!#
11#
00
0-
0@
0=
0P
0M
0b"
0_"
0"#
02#
0T#
0Q#
0d#
0a#
1/
1?
1O
1a"
1}"
1/#
1S#
1c#
0,
0+
0<
0;
0L
0K
0^"
0]"
0z"
0,#
0P#
0O#
0`#
0_#
13
1C
1S
1c
1s
1$"
15"
1E"
1T"
1e"
1t"
1&#
16#
1G#
1W#
1g#
1(
18
1H
1&"
1V"
1Z"
1v"
1(#
18#
1L#
1\#
1.
01
1>
0A
1N
0Q
0^
0a
0n
0q
0|
0#"
00"
03"
0@"
0C"
0N"
0S"
1`"
0c"
0n"
0s"
1~"
0%#
10#
05#
0B#
0E#
1R#
0U#
1b#
0e#
05
06
0E
0F
0U
0V
0f
0v
0'"
0("
08"
0H"
0W"
0X"
0g"
0h"
0w"
0x"
0*#
0:#
0J#
0Y#
0Z#
0i#
0j#
1'
17
1I"
1i"
0y"
0+#
1[#
1"
1$
b10011100011111 #
b10011100011111 %
